<?xml version="1.0"?>
<svg xmlns="http://www.w3.org/2000/svg" xmlns:xlink="http://www.w3.org/1999/xlink" xmlns:svgjs="http://svgjs.com/svgjs" version="1.1" width="512" height="512" x="0" y="0" viewBox="0 0 470 470" style="enable-background:new 0 0 512 512" xml:space="preserve" class=""><g>
  <g xmlns="http://www.w3.org/2000/svg">
    <path d="m464.855,315.359l-106.576-141.097c-6.437-8.521-19.345-14.948-30.025-14.948h-18.574v-7.5c0-15.561-10.995-28.596-25.622-31.761-3.194-17.46-18.509-30.739-36.878-30.739h-102.59c-4.142,0-7.5,3.357-7.5,7.5v22.5h-18.987l-16.605-21.979c4.839-5.467 7.973-12.233 9.003-19.629 1.381-9.921-1.183-19.786-7.221-27.778l-15.563-20.602c-6.038-7.992-14.827-13.155-24.748-14.536-7.723-1.077-15.407,0.25-22.206,3.734-4.358-3.321-9.69-5.153-15.342-5.153-14.017-1.77636e-15-25.421,11.403-25.421,25.42 0,5.572 1.78,10.871 5.145,15.317l115.617,153.066c1.417,1.876 3.633,2.979 5.985,2.979h33.574v7.089c0,14.07 11.447,25.518 25.518,25.518h26.661v57.306h-4.526c-4.142,0-7.5,3.357-7.5,7.5v84.063h-108.479c-4.142,0-7.5,3.357-7.5,7.5v50c0,4.143 3.358,7.5 7.5,7.5s7.5-3.357 7.5-7.5v-42.5h271.01v42.5c0,4.143 3.358,7.5 7.5,7.5s7.5-3.357 7.5-7.5v-50c0-4.143-3.358-7.5-7.5-7.5h-108.478v-84.063c0-4.143-3.358-7.5-7.5-7.5h-4.527v-57.306h26.662c14.07,0 25.518-11.447 25.518-25.518v-7.089h11.997l102.631,135.844c4.856,6.418 12.245,10.099 20.271,10.099 14.017,0 25.42-11.403 25.42-25.421 0.001-5.571-1.779-10.869-5.144-15.316zm-20.275,25.738c-3.286,0-6.315-1.513-8.307-4.146l-104.878-138.818c-1.417-1.876-3.633-2.979-5.984-2.979h-194.931l-113.37-150.091c-1.381-1.825-2.11-3.994-2.11-6.272 0-5.745 4.675-10.42 10.421-10.42 3.286,0 6.315,1.513 8.307,4.146l16.822,22.266c2.497,3.304 7.2,3.961 10.505,1.463 3.305-2.497 3.96-7.2 1.463-10.506l-11.515-15.242c3.158-1.003 6.519-1.321 9.897-0.851 5.952,0.829 11.226,3.926 14.848,8.722l15.565,20.601c3.623,4.795 5.161,10.714 4.332,16.666-0.471,3.379-1.695,6.525-3.523,9.288l-11.52-15.248c-2.498-3.304-7.2-3.96-10.505-1.463-3.305,2.497-3.96,7.2-1.463,10.506l69.972,92.616c1.417,1.876 3.633,2.979 5.984,2.979h183.663c5.896,0 14.502,4.284 18.056,8.989l106.58,141.103c1.381,1.824 2.11,3.993 2.11,6.271 0.001,5.745-4.673,10.42-10.419,10.42zm-160.417-113.336h-98.324c-5.799,0-10.518-4.718-10.518-10.518v-7.089h119.359v7.089c0,5.8-4.718,10.518-10.517,10.518zm-68.689,163.868v-76.563h39.053v76.563h-39.053zm12.026-91.563v-57.306h15v57.306h-15zm19.68-195.753c9.777,1.42109e-14 18.114,6.271 21.21,15h-116.3v-15h95.09zm30,30c9.649,0 17.5,7.851 17.5,17.5v7.5h-146.356l-18.887-25h147.743z" fill="#555555" data-original="#000000" style="" class=""/>
    <path d="m348.005,421.629h-226.01c-4.142,0-7.5,3.357-7.5,7.5 0.003,4.146 3.36,7.5 7.5,7.5h226.01c4.14,0 7.497-3.354 7.5-7.495 0-4.148-3.358-7.505-7.5-7.505z" fill="#555555" data-original="#000000" style="" class=""/>
  </g>
</g></svg>
